{
/* version of this configuration file */
    "version"       : "1.0",

/* key */
    "hex_key"       : "63306C6C6967656E7421416666696E697479416E7377657273",

/* log format. supported values are "plain" & "json" */
    "log_format"    : "plain",

/* true if deep crawl is enabled */
    "deep_crawl"    : "true",

/* this is the higher upper limit on crawling posts */
    "max_deep_crawl_levels" : 1000,

/* current catalog week */
    "current_catalog_week" : "2014-07-23",

/* crawl order from database .Supported values are "newest_first", "oldest_first" */
    "crawl_order" : "newest_first",

/* if numeric relationships are used in crawl */
    "numeric_relationships_in_entity_fan" : false,

/* if set to "true", then frontpage data is always recorded irrespective of post-age */
    "always_save_posts_from_frontpage" : true,

/* settings for database */
    "db" : {
        "crawl" : {
            "user"   : "instagram",
            "pass"   : "instagrampass",
            "host"   : "stage5",
            "db"     : "instagram_crawl",
            "prefix" : ""
        },
        "merge" : {
            "user"   : "instagram",
            "pass"   : "instagrampass",
            "host"   : "stage5",
            "db"     : "instagram",
            "prefix" : ""
        },
        "universe" : {
            "user"   : "instagram",
            "pass"   : "instagrampass",
            "host"   : "stage5",
            "db"     : "instagram_universe",
            "prefix" : ""
        }
    },
    "crawl_delay"  : {
        "profile"  : 3,
        "comments" : 0,
        "posts"    : 3
    },
    "log" : {
        "show_statistics" : "no"
    },
    "global" : {
        "workmode" : "LEGACY"
    },
    "death" : {
        "when" : {
            "profiles_with_zero_comments" : 10000,
            "min_relationship_maps" : 2
        }
    },
    "tables" : {
        "post"                  : "instagram_universe.post",
        "user"                  : "instagram_universe.fan_universe",
        "postcomment"           : "instagram_universe.postcomment",
        "entity_fan"            : "instagram_crawl.entity_fan",
        "job_entities"          : "instagram_crawl.job_entities",
        "UUID_ig"               : "all_networks.UUID_ig",
        "entity_fan_ART_master" : "instagram.entity_fan_ART_master",
        "entity_fan_BRN_master" : "instagram.entity_fan_BRN_master",
        "entity_fan_CEL_master" : "instagram.entity_fan_CEL_master",
        "entity_fan_DIG_master" : "instagram.entity_fan_DIG_master",
        "entity_fan_GAM_master" : "instagram.entity_fan_GAM_master",
        "entity_fan_LOC_master" : "instagram.entity_fan_LOC_master",
        "entity_fan_MAG_master" : "instagram.entity_fan_MAG_master",
        "entity_fan_MOV_master" : "instagram.entity_fan_MOV_master",
        "entity_fan_RAD_master" : "instagram.entity_fan_RAD_master",
        "entity_fan_SPR_master" : "instagram.entity_fan_SPR_master",
        "entity_fan_TVS_master" : "instagram.entity_fan_TVS_master",
        "entity_fan_XXX_master" : "instagram.entity_fan_XXX_master",
        "relationship_map"      : "instagram_crawl.relationship_map"
    },
/* settings for the redis cache */
    "cache_hostname" : "localhost:6379",
    "enable_extended_relationships" : "yes",
/* 365.25 * 86400 days */
    "activity_filter_seconds" : 31557600,
    "merge" : {
        /* supported values are "now", "from_network" */
        "last_updt_time" : "from_network",
        "skip_uuid_update" : 0
    }
}

